Id,y
10000,-66.00242349023134
10001,451.4065044011549
10002,-461.67641706029866
10003,40.50120875372349
10004,-126.74472245403786
10005,-342.5345518192509
10006,-396.5555421135886
10007,335.54127907908696
10008,-99.51242087062403
10009,304.8125398062754
10010,68.89453048978535
10011,412.36919545590746
10012,54.94237102476813
10013,-17.005550754779794
10014,-597.8499575722612
10015,443.50228878641485
10016,144.77448697804365
10017,-57.41116367253673
10018,134.38782757746105
10019,-108.98377598910885
10020,153.82482842506747
10021,611.7359836022029
10022,588.3896503384224
10023,-131.0167999580196
10024,-61.13562114122944
10025,-374.2484953169728
10026,74.15799307965464
10027,137.43837873610386
10028,420.08661179679063
10029,196.76562571344334
10030,268.4428498005317
10031,638.4749102511095
10032,127.37873138691923
10033,1.3491187584003559
10034,22.710453177407285
10035,342.2395345225649
10036,307.7039669741721
10037,348.13820870094
10038,-168.652861307354
10039,-20.22113090461747
10040,-551.7499275731114
10041,-429.9718040667411
10042,261.89195870674337
10043,389.82042612922095
10044,-96.16562227356594
10045,-210.7108012563251
10046,278.8818687840123
10047,-427.4533010310493
10048,-172.90325291756758
10049,467.2643783557849
10050,-631.5587355874397
10051,-355.5316593381783
10052,143.17327553860358
10053,69.19920259894155
10054,275.58827397672604
10055,-263.18861220410326
10056,167.49830723241234
10057,104.5778958901424
10058,230.07008661007586
10059,20.988026644575864
10060,-4.822581262501575
10061,-201.92294081063724
10062,560.0639265657699
10063,55.28847625244869
10064,671.3015746918346
10065,-493.74873828522834
10066,-279.35303673259205
10067,-53.71252761314763
10068,379.69819550097526
10069,315.071410857982
10070,169.13001732614254
10071,-271.59930326901116
10072,783.8022226750345
10073,44.577311515548175
10074,57.40678005457822
10075,-161.07827414306837
10076,-220.66957847885774
10077,223.24129442929097
10078,352.66559554375453
10079,13.163291366266035
10080,-461.9941469857304
10081,305.3721466914238
10082,-230.59656173861123
10083,359.0744432425441
10084,-430.2605633759217
10085,-115.54882205546288
10086,-88.96006387867425
10087,-488.2901898080424
10088,-139.35033854713555
10089,57.338808108526656
10090,-190.3362427216647
10091,-6.508092914824291
10092,189.29107774701842
10093,346.603678185656
10094,871.6273206485904
10095,-147.01353738653847
10096,443.4899377794304
10097,-30.498432974436863
10098,185.46345753445962
10099,-119.91717151732763
10100,43.575238001807705
10101,58.318571552243824
10102,-197.152468298398
10103,-70.47160678841232
10104,-342.8460532886676
10105,-29.2335898737171
10106,49.52292929610354
10107,-16.246144137913337
10108,33.775069261607086
10109,-68.88307748324122
10110,25.863399493696416
10111,-617.3142842716959
10112,-185.9044130119491
10113,323.78310610938644
10114,-35.66219572212756
10115,-733.5297711613837
10116,-240.73856264736048
10117,-381.97314662424924
10118,75.3199446216949
10119,36.61032645911739
10120,-28.75627022502306
10121,-481.1606279685885
10122,408.85023042298906
10123,-765.0217471991635
10124,178.0726965163709
10125,-7.649879385673347
10126,134.79684623375923
10127,-477.4585142128704
10128,-248.7062530132363
10129,-361.884657223864
10130,-18.75561174855459
10131,7.795604374434405
10132,-109.10598972538428
10133,-63.07374524219483
10134,591.823183734916
10135,259.61263369662885
10136,-279.86583200876726
10137,93.22535940051873
10138,-427.2873154191352
10139,84.38656633089795
10140,-311.54463064415614
10141,11.419268612560982
10142,-297.83146842358497
10143,-331.9289709686438
10144,656.0132305257314
10145,-476.6626813650543
10146,361.1940451337748
10147,-150.18526861192348
10148,299.9467190243248
10149,-191.72143219270723
10150,151.9499951161196
10151,-64.67275781576478
10152,351.2448616306336
10153,-370.63644575627245
10154,349.2249817861106
10155,273.5246096168015
10156,783.1971843196877
10157,-124.23788973573964
10158,-155.220044329909
10159,-506.95564938641076
10160,201.69321238561554
10161,-415.1740571596365
10162,-348.1651051695652
10163,-201.95224108680975
10164,-658.9504470533375
10165,179.3464016817153
10166,124.06925816168749
10167,-209.15025355201757
10168,213.7051347740059
10169,-82.11721023808981
10170,-97.11026989726938
10171,124.26800574648023
10172,50.2899156571426
10173,538.7439592813369
10174,630.0175345543366
10175,217.2592778265438
10176,-491.7337413267077
10177,-131.1417511388329
10178,362.39302241729433
10179,-14.363038055408483
10180,-30.261757361676263
10181,-107.3235807672989
10182,-334.0625929296716
10183,299.50639964643284
10184,-103.47221484505405
10185,179.8204994671945
10186,122.20070887900721
10187,86.58037161690694
10188,386.4825605669924
10189,-613.3611745045829
10190,-269.81638738346254
10191,260.73145126228644
10192,-44.62016128042788
10193,-159.15717576416782
10194,-145.24559879357506
10195,447.2282148760008
10196,476.356985969595
10197,121.79421345327248
10198,-1.5356790561063487
10199,410.744096538781
10200,90.82809979964712
10201,150.07336956845083
10202,24.033652961547087
10203,273.8866340536299
10204,-154.5292603802514
10205,42.588901507066
10206,617.3417063168565
10207,38.939360761429214
10208,-91.43610119490376
10209,225.35327477391132
10210,151.0582757708565
10211,-86.91664773646032
10212,-101.7178895800721
10213,161.93776502605544
10214,357.87041410354493
10215,32.14597818655443
10216,-379.14539920029193
10217,-165.94213222367225
10218,257.4539216945416
10219,-124.8385077918413
10220,47.08451472299197
10221,-67.05065138980225
10222,287.17334413416415
10223,836.2674277701625
10224,-78.7332926020562
10225,-293.00922915219496
10226,284.91632646225594
10227,377.9514320082281
10228,-473.94261958972226
10229,-538.8094549766043
10230,-372.9047504031878
10231,-83.3770088996874
10232,157.46205951911244
10233,167.50291456151038
10234,-105.6904057431961
10235,561.1616879176285
10236,-149.35531895746865
10237,196.9668051235228
10238,-33.819911727579964
10239,5.199419882337662
10240,-121.7084229606327
10241,53.47357981737797
10242,531.2918938411242
10243,-157.60262258937678
10244,-183.77196239261218
10245,643.8322464256636
10246,17.78030601012939
10247,-92.07939719460286
10248,485.49316460507566
10249,-221.23657860793955
10250,490.60650504846177
10251,-43.6771591542503
10252,139.9332298711763
10253,207.5044744276107
10254,17.09264702436
10255,-396.47203316052884
10256,-168.30166761529196
10257,-75.59324100124466
10258,-292.0735078007699
10259,-59.37366534663269
10260,247.36904706438438
10261,206.83112758185558
10262,17.462464464079627
10263,-181.8114850065703
10264,300.1761509454855
10265,-567.6387247955889
10266,311.5932728526353
10267,-9.929511835492578
10268,161.40782304547832
10269,272.3855992297241
10270,55.122457419425245
10271,-15.27826741219738
10272,286.40230194290285
10273,387.88861194347385
10274,-148.57888863638613
10275,171.95235244839668
10276,-411.57059222267867
10277,213.80253827075163
10278,133.9300243737179
10279,-99.0171775012419
10280,-162.41724224558206
10281,-39.07419011347845
10282,-295.15845218323926
10283,141.32481354359592
10284,163.0598300533456
10285,-55.455401462417484
10286,-145.74067609352159
10287,16.35046243635423
10288,-364.29855848282784
10289,558.6630187376719
10290,40.0506612190079
10291,67.63734504297013
10292,559.8400846554667
10293,469.8069471574163
10294,-149.49980105452983
10295,-328.8227866996961
10296,425.7713170466749
10297,85.50466241179444
10298,-166.91553705584954
10299,-662.2984070393495
10300,50.28039165300346
10301,-11.355718332961404
10302,-451.8112644495309
10303,78.67283313413117
10304,-386.8187999173568
10305,-273.22738305237203
10306,352.01504544002245
10307,-263.8480409181023
10308,-214.7302229936115
10309,-84.88115489738443
10310,745.8832791254222
10311,-418.97510845227407
10312,739.1991251661937
10313,-469.0774263529481
10314,481.82984486567125
10315,363.2079747874408
10316,-270.2530418207191
10317,-399.59212471613216
10318,234.4572803070646
10319,-38.73469357032627
10320,238.36874871850705
10321,28.697441990183208
10322,238.23095785965364
10323,-130.00744030000138
10324,-681.2945617788497
10325,61.58065295954296
10326,-444.92985067095924
10327,-14.71320839284053
10328,680.4767823428572
10329,288.73260649376533
10330,839.9704901556719
10331,416.6574765191804
10332,167.35603728915746
10333,-86.77953786706792
10334,332.7699676004362
10335,-201.33443093425353
10336,-43.62508298784127
10337,-107.90237779609677
10338,-284.03573802517076
10339,232.6085571783259
10340,237.83315171539982
10341,74.39980567720295
10342,255.5177040636462
10343,-168.64961928561024
10344,68.56334601629044
10345,-365.4419817252611
10346,189.70649886094637
10347,-369.8332497667094
10348,-250.90024390237826
10349,76.3135501962324
10350,-344.945509233776
10351,-187.42339326812584
10352,482.1697569825218
10353,125.7526697288593
10354,450.69194375218615
10355,216.1761901820817
10356,34.34193571930493
10357,57.511455961215106
10358,-211.41949894712747
10359,49.76249180949303
10360,76.1110402075839
10361,-29.196254490440726
10362,33.04895852873719
10363,364.5627121630998
10364,234.4828098731517
10365,-21.796554859090715
10366,-476.93787704780084
10367,43.56765899304647
10368,-310.95721366516995
10369,-46.94111622603661
10370,181.1955810713353
10371,-214.96242982007197
10372,-80.22706031522135
10373,841.2082291657381
10374,102.35678708587017
10375,37.29773804688183
10376,77.39818275960278
10377,435.7945214936922
10378,111.39479265155705
10379,-128.8292241538744
10380,573.0501210583958
10381,48.602468077911475
10382,-68.55414659218812
10383,56.68162450583047
10384,-360.30993199943936
10385,131.9019228345042
10386,-264.52589763343076
10387,-378.7932497249931
10388,-190.09929259976604
10389,862.9152130409623
10390,159.57649666231137
10391,514.0204635801456
10392,61.387667803406785
10393,720.8758958326582
10394,-450.9767310398022
10395,105.89444211999697
10396,-27.532603044003174
10397,-23.435561966770553
10398,331.2059982949459
10399,-156.0245639482408
10400,0.9477018385598346
10401,17.232405165319303
10402,143.23908417021192
10403,53.22645139074723
10404,41.01334926979489
10405,-129.39255146834813
10406,430.91652104593055
10407,-427.9096196573563
10408,49.11400485209228
10409,-221.64758038918794
10410,-313.75971218685027
10411,115.24452244706914
10412,96.10097204453515
10413,-399.91598494242106
10414,-8.411407923562813
10415,733.1841324374687
10416,-332.42676649165094
10417,83.67612042194337
10418,339.79274865544244
10419,-35.11570131451418
10420,38.204335433878086
10421,-606.1984890559304
10422,194.2728533894614
10423,155.0315511615821
10424,-111.25647787348365
10425,-63.33937163651622
10426,403.93581872896345
10427,690.91943033586
10428,75.78129943645023
10429,-340.31540652357575
10430,-195.7615954269791
10431,40.44513870875559
10432,-137.65418796029311
10433,-95.67479658954477
10434,290.843537872503
10435,568.4646813472783
10436,351.21865075407544
10437,194.7151665816828
10438,-312.1508420871936
10439,-518.3107868724481
10440,-80.75158048061363
10441,-109.91053830578484
10442,491.41083647519633
10443,371.485144860494
10444,343.85664466843605
10445,114.60785397368431
10446,-315.2044219098825
10447,83.10396509307063
10448,-82.59915101774095
10449,-182.21902722527608
10450,-294.91729245130506
10451,-294.21055531486934
10452,611.5470417356519
10453,-34.756134103592046
10454,-115.04157690057805
10455,263.27933790237637
10456,346.0565120928384
10457,194.61161526910996
10458,257.35614963849366
10459,-303.20809492711595
10460,-173.19591085705963
10461,-88.53983448578455
10462,137.60161200011285
10463,337.04864927806557
10464,155.7252346036268
10465,-250.29079290523805
10466,148.06340015143527
10467,333.68218860937793
10468,-260.3363923834257
10469,340.3079092279146
10470,224.68535571269553
10471,-607.2797170619313
10472,-54.859592940918674
10473,-685.0910817258431
10474,268.2582707785939
10475,108.79743563388368
10476,-233.16761717272055
10477,115.89088157850266
10478,75.28875461498461
10479,312.5869539403426
10480,78.42590704679493
10481,-509.63079643958304
10482,142.15294578474618
10483,-567.6096744598843
10484,99.1978441101306
10485,181.76569364680978
10486,-27.407098394358346
10487,-646.8210508159755
10488,-261.63281625029913
10489,-398.87688919781544
10490,-259.41075205618347
10491,-252.05740356799063
10492,-25.64796722733198
10493,-479.3579494231418
10494,109.91068619021947
10495,161.94257969113974
10496,-436.80717423975506
10497,-66.01220442256832
10498,-73.605382654072
10499,51.002739446194354
10500,7.609681032164272
10501,-38.39048673108258
10502,493.5959706069285
10503,-303.4490805444867
10504,285.36305876068593
10505,236.9308212194626
10506,-112.90288738209146
10507,-104.91639705404673
10508,70.11071172015261
10509,-334.40218077461816
10510,-526.1520613513325
10511,26.69512668154081
10512,16.625076878906494
10513,-282.62391868623905
10514,-156.76438922324843
10515,-368.7038524010557
10516,87.26698388397308
10517,9.621961449393963
10518,159.33855433394933
10519,737.8354361900725
10520,-63.52561489683821
10521,253.39234540406807
10522,-195.4792622604795
10523,-233.60406275700632
10524,672.0430027603305
10525,161.02647811633955
10526,-86.9238858837821
10527,767.4499376317864
10528,300.14345470154274
10529,-264.633262120531
10530,506.8069224983675
10531,413.7325757860616
10532,-227.9556542045857
10533,270.7218219182473
10534,166.27214538843145
10535,467.8359469952993
10536,691.014192741333
10537,-235.19550162577593
10538,-204.49475633783646
10539,235.56549902566982
10540,481.5082289895022
10541,-404.28637162617315
10542,499.6345988790226
10543,-280.4236242835598
10544,349.63535701277453
10545,56.27921855932743
10546,377.78382419955307
10547,58.23929412508239
10548,424.2998121746487
10549,85.80041244154785
10550,-252.99288852458955
10551,172.86784495502056
10552,-190.1066002057147
10553,306.9642865236691
10554,-179.11766493342355
10555,-155.7759049400487
10556,-208.75257057910818
10557,-257.4259780204178
10558,-187.88708045784372
10559,178.95968589803172
10560,769.2994246067667
10561,131.45400495646234
10562,-86.33605847725511
10563,-440.7896941287978
10564,522.2063378416923
10565,74.26044537058867
10566,-273.34519080824776
10567,23.88548320272228
10568,-140.8861901167377
10569,337.4418933254648
10570,63.425120244031376
10571,-78.12104360563907
10572,-209.41596150610678
10573,-354.30221699579005
10574,261.54958940727255
10575,252.7847530350219
10576,415.33279349639787
10577,-341.41062177496315
10578,-101.54306561728913
10579,-82.98003734434648
10580,-146.1918594508303
10581,-400.95700950885055
10582,114.6881016153072
10583,-318.4094491728413
10584,-27.12865111315094
10585,253.39206355032286
10586,-15.161597235909829
10587,490.27631015669806
10588,67.16055415516038
10589,-583.6536301606628
10590,566.8292227808818
10591,-659.7840206113418
10592,-280.3445865766315
10593,-618.4849576034642
10594,-403.0815217720823
10595,52.580795867776175
10596,154.1372478179058
10597,-187.1872458864603
10598,45.06432286401834
10599,389.8698024589752
10600,497.49442770097335
10601,-172.6046614569703
10602,-199.4880483069116
10603,146.33213540458834
10604,-745.9314211823646
10605,-230.93578234679626
10606,-157.737688235105
10607,170.55585672160797
10608,58.52819579127393
10609,21.77823537708343
10610,-33.84543238859593
10611,527.0115321450177
10612,370.3597932478207
10613,-83.70884929336648
10614,-297.8667818275179
10615,379.6300416409051
10616,-194.4998186788643
10617,-59.0811542392407
10618,-59.05074145608479
10619,-265.7953310406411
10620,-488.32421484496365
10621,-28.13331681509627
10622,-110.8972425166397
10623,642.5198198743144
10624,-25.104958245574736
10625,368.2746547201459
10626,274.79921352704196
10627,416.526129336385
10628,110.57324867984266
10629,561.3783520521666
10630,497.1437621157768
10631,-201.60987734450936
10632,-370.05229826158836
10633,731.0573724235985
10634,-380.13707915516886
10635,-200.60251550520854
10636,272.0860118937549
10637,269.84058991076284
10638,-243.56399508534577
10639,-80.64209434586883
10640,-467.9770128985549
10641,384.10330917171393
10642,-158.51464076438253
10643,-321.14290897908114
10644,-72.30709812158395
10645,244.89650104863057
10646,-111.76687989927582
10647,-71.30354161628681
10648,-97.14900534513897
10649,387.99285294446224
10650,134.0797608254548
10651,-372.7245397183446
10652,-153.89734891410598
10653,376.055724678307
10654,-45.06699972728194
10655,29.111024201617408
10656,-164.38841371392493
10657,291.3802875570236
10658,-389.64290898924645
10659,-145.45381366072777
10660,276.50614199272445
10661,-134.09381091718964
10662,82.94811155481133
10663,143.77337061052737
10664,230.85377823040886
10665,649.8980469913487
10666,188.10011410399233
10667,170.77221614376253
10668,-533.8474844790483
10669,-516.1349688253711
10670,-356.7869746721656
10671,480.9037432056483
10672,-54.535992961675916
10673,-272.6605720403803
10674,-89.16369341976706
10675,-97.40004082496067
10676,-264.298037750627
10677,-558.8516759610412
10678,-18.223173989822858
10679,238.68337858798014
10680,-107.49682687897577
10681,-439.73714969227456
10682,-366.0873776204504
10683,540.4744022919014
10684,-335.9192295399891
10685,128.98481364662433
10686,-360.4650592778843
10687,-211.0145865681999
10688,115.70383605399772
10689,-723.6333562247723
10690,380.8939221056089
10691,24.300969805755148
10692,-145.38761452740937
10693,-157.28295617853863
10694,134.10336003672975
10695,215.95710077116246
10696,-310.2061637343898
10697,18.018883693842696
10698,-287.1696947296584
10699,-244.8288894362388
10700,-126.15190632103034
10701,-276.8510336972015
10702,-63.902823195384016
10703,-268.29074198436456
10704,80.99060618707668
10705,135.4919764914785
10706,265.8617173707366
10707,290.1533893185745
10708,72.85750706987622
10709,-88.64501838284343
10710,-562.5238017086118
10711,-257.96859166459217
10712,-88.3281877322763
10713,-608.9048913545769
10714,16.648129846867672
10715,-117.99664144508809
10716,244.48813585825098
10717,60.961320646526644
10718,640.8504726114273
10719,15.073592658661918
10720,135.0064443047729
10721,39.52337453323234
10722,86.44560574134306
10723,20.33765461545516
10724,217.44242023198032
10725,-8.574845990247754
10726,172.39758731739934
10727,-326.00374877329034
10728,347.5813407240384
10729,128.958039091146
10730,-379.7500886129533
10731,-134.70695705662573
10732,153.56888514342364
10733,-72.12278608897041
10734,183.3084883057272
10735,-456.5387761913795
10736,152.2753016259968
10737,-20.658280599070824
10738,245.6223283546584
10739,776.4009728233565
10740,-320.1434529602255
10741,-479.31970828477796
10742,-69.75434860290811
10743,-372.0104531960519
10744,397.282247381808
10745,94.97293025154113
10746,-545.8700939849764
10747,92.71733084803338
10748,456.6232467986974
10749,140.3351962920402
10750,-542.6167845034421
10751,33.2561784730559
10752,237.54555311936653
10753,-260.51478060377394
10754,-227.74117804894496
10755,-18.374207944644493
10756,357.2320793577904
10757,234.16866322379505
10758,309.04949086471606
10759,109.41620907267897
10760,297.0462771953385
10761,431.28271868977316
10762,-285.9027541516838
10763,-461.12318506056306
10764,458.84116852029274
10765,-35.1324786579342
10766,-138.96677867277958
10767,435.8781113541393
10768,-327.551732481243
10769,-16.175842225601617
10770,32.687383150971996
10771,-143.11036093613393
10772,-82.91163796819356
10773,-26.395849579089035
10774,-295.9065424837692
10775,-300.94455130927753
10776,-157.03746176056382
10777,-444.1054251705674
10778,55.54295923374427
10779,136.0957334337383
10780,-59.9342344141386
10781,774.7869393558549
10782,-291.821469402542
10783,449.6545133580527
10784,-231.2008249130528
10785,88.18058840405153
10786,511.682381615945
10787,27.698913991854564
10788,69.71900343078562
10789,-684.0304286748202
10790,-181.16575418910784
10791,-592.2856835316272
10792,-326.3723044913685
10793,527.5739554313383
10794,-175.98223228892547
10795,555.3273243262504
10796,-40.062192569476565
10797,-242.90961184425666
10798,466.47500983220965
10799,209.72657821779913
10800,112.47399028633848
10801,655.9597092112739
10802,-253.67288201365386
10803,-143.14006436902667
10804,261.90903344912516
10805,-51.43052462098902
10806,-646.5343714931217
10807,-114.11730645512895
10808,126.14931118008064
10809,204.5934628589955
10810,-300.3936136583136
10811,-415.68674588953934
10812,6.449152884280704
10813,72.80107777482864
10814,160.6608720814519
10815,249.31168929181734
10816,-248.28534524656348
10817,7.830629922613096
10818,-466.3838270166594
10819,290.15144404460153
10820,-309.0332065633397
10821,528.6916611956265
10822,372.493847932254
10823,-328.08626630968536
10824,-94.6587340772518
10825,55.5691941404577
10826,67.34382419031738
10827,-533.6683812491315
10828,-128.1086335034484
10829,-542.9948584464191
10830,54.634639672580434
10831,182.6604348326789
10832,-41.29948573089126
10833,652.8127633917362
10834,-336.96578073788845
10835,99.96282019773818
10836,811.7900163367078
10837,-346.25211606529973
10838,103.69087960098342
10839,487.73608126333284
10840,120.89569101399168
10841,-324.3296740543692
10842,-136.41212971214827
10843,-41.92443003097716
10844,282.7029865802337
10845,345.62032897020543
10846,124.69798534752367
10847,-206.11335283373415
10848,155.93998583214082
10849,-443.76722994338496
10850,-273.3430034005967
10851,195.95033081854586
10852,-30.690040851399626
10853,86.56778659815403
10854,-312.2113618894969
10855,41.0052469614578
10856,307.67518019994736
10857,532.9059494214051
10858,260.1616805633805
10859,362.0055075337377
10860,101.32898120196786
10861,38.44129613989402
10862,20.267674753902636
10863,117.44024988074568
10864,573.691182707856
10865,-507.5920585145017
10866,-211.76962671045675
10867,-78.39989740428192
10868,-319.57376765957366
10869,-267.4465644183343
10870,-780.8570319676239
10871,50.229980556442854
10872,-298.54901081716724
10873,23.392386523117093
10874,-76.29059741014768
10875,-257.59747046425434
10876,171.5643650979659
10877,-121.60078316248976
10878,-451.37377685543066
10879,81.13533884268256
10880,-212.55249317142648
10881,-3.534927229094907
10882,-408.2554810001855
10883,-158.65133194465778
10884,238.39834201613132
10885,-133.03572327369713
10886,-266.0840826060641
10887,247.74270438194768
10888,347.96654428323745
10889,-511.31524281086746
10890,21.81587121501971
10891,-163.84140964229093
10892,-472.56083639704843
10893,-365.0082671512354
10894,272.4371379322405
10895,92.37376374891605
10896,491.8081456846516
10897,-200.03605813580867
10898,144.31490824987443
10899,-554.3580524199996
10900,-449.35755789415816
10901,565.0154801799606
10902,446.3187580746218
10903,309.69738818741314
10904,282.92794140775106
10905,176.19762818996745
10906,-315.141851760381
10907,612.3377931152977
10908,274.2522312477312
10909,-19.436173058565064
10910,404.62544777052443
10911,47.26648142698559
10912,101.89624080960493
10913,98.14809562777856
10914,-231.35258244372238
10915,136.336123191643
10916,-150.31005926794884
10917,461.19954997878796
10918,145.69015888427305
10919,-405.8237418755588
10920,-405.55256587509666
10921,213.673943650561
10922,-204.80364027314397
10923,-118.57063791050842
10924,675.2302648290724
10925,145.16198786853454
10926,489.6870020199626
10927,-173.76557459369326
10928,89.69168465283661
10929,239.01179154231008
10930,-68.18000068660095
10931,93.66677561513274
10932,-196.55301722008613
10933,-711.7534447200936
10934,-104.15023991148938
10935,55.730039501229754
10936,74.24035058478668
10937,625.749590876905
10938,234.98688486875466
10939,221.59294793875648
10940,61.93159175679462
10941,239.73644833443595
10942,-21.33808181831785
10943,180.16473629709168
10944,14.918627995498396
10945,-374.8656883482515
10946,-397.51492885840344
10947,114.66690843216162
10948,-269.61622879894304
10949,0.13921221449191745
10950,-34.59484676069334
10951,72.73402122668121
10952,-188.805563139038
10953,-365.53367192345377
10954,-67.59552255426757
10955,19.501170139178836
10956,212.78259013823384
10957,170.7228468826322
10958,48.75605588201877
10959,-239.44652279164654
10960,409.7382051551798
10961,399.8680056503097
10962,18.693100459976304
10963,165.76697195984374
10964,-124.38945349671077
10965,54.994523212786845
10966,640.432074564869
10967,7.578792735555351
10968,-265.04763041001144
10969,1.6927330910936835
10970,18.517133621267615
10971,-248.85163930169307
10972,106.86193154650815
10973,251.63914312090975
10974,133.83773953640676
10975,-358.26696137693114
10976,426.2614473176419
10977,71.97842246974095
10978,-322.08755962522036
10979,438.84026750159427
10980,-40.13211449134141
10981,283.80356865292606
10982,-487.90619533258575
10983,-86.93302825214819
10984,-470.8501510916901
10985,73.14648277315212
10986,-688.3900989407994
10987,392.47856756604085
10988,-328.63103749553807
10989,149.39160063469205
10990,321.793114760606
10991,584.3930870450635
10992,206.75729570024885
10993,36.548225997008
10994,-37.77828521118788
10995,-551.0517094651369
10996,-107.85120387757037
10997,-176.80602795353093
10998,-356.8894911731833
10999,418.4145841124788
11000,-26.133496016981983
11001,-213.90951362803037
11002,246.57978881987702
11003,-32.011024949712194
11004,-126.73258849582645
11005,26.914491557619687
11006,198.92197376295223
11007,-18.843554414706805
11008,-119.51484607642345
11009,-389.90376053107417
11010,-149.50928607147893
11011,-308.96203021469444
11012,-478.7771604137526
11013,-616.7291412522799
11014,-25.890829611384948
11015,-133.17659031686358
11016,-633.0587252293217
11017,-32.26329474560748
11018,28.795819581695095
11019,-290.001323640661
11020,-168.02496539200152
11021,-173.84102001973918
11022,107.27955415166367
11023,278.3287852070004
11024,164.73665181591306
11025,596.7860199506165
11026,737.7802177171236
11027,-57.04439870388728
11028,-20.38191302788518
11029,193.11140830024647
11030,150.9524222036816
11031,-340.87792585586686
11032,207.55657024653834
11033,-27.67472612589241
11034,-146.9516573657125
11035,-121.8806682961275
11036,144.479505329891
11037,333.209531678897
11038,-452.5131209680454
11039,-208.5368467442234
11040,265.844947523609
11041,-86.19645950050088
11042,-456.01061792236266
11043,-377.7300472014274
11044,277.55668897045376
11045,-98.28816556864399
11046,-258.6774182328502
11047,508.513021646591
11048,-27.829466767414917
11049,-397.8382252241882
11050,27.294231548041946
11051,55.460906962912816
11052,86.52443961502684
11053,-417.7182670641671
11054,265.07469217436994
11055,126.49537980057373
11056,-731.2337998933434
11057,26.76852907043187
11058,15.172424965473274
11059,603.1491770539617
11060,-68.51036908576039
11061,-630.1588497389259
11062,391.43989504517083
11063,191.26739771271346
11064,-82.79915889804502
11065,874.2798355716825
11066,130.10220965607994
11067,24.825257629839168
11068,10.015684555530525
11069,407.5535519509851
11070,184.93372244983667
11071,699.4013403550853
11072,12.874182171249343
11073,-569.7950312054745
11074,-60.61826753027214
11075,-96.58944292586139
11076,19.660708357384078
11077,30.225969050065995
11078,-107.06858214835688
11079,-23.448153023308603
11080,-16.563489755113014
11081,18.767317998587483
11082,145.95038182220617
11083,-428.1027566009212
11084,-158.17477611037262
11085,-44.37808089678862
11086,-411.2997705448306
11087,218.42101808202466
11088,141.24530784475309
11089,316.6347559705912
11090,93.68023982535499
11091,154.1640540256554
11092,-132.92025023591066
11093,-293.8735713953071
11094,485.3063455878758
11095,-271.2294815068552
11096,373.3831471784334
11097,-359.66959875632904
11098,-459.9923044506954
11099,209.0536985232825
11100,46.74008351487706
11101,-767.8965435991786
11102,-153.96946682570615
11103,-66.68289246156839
11104,-15.944035080887604
11105,16.07598434500039
11106,157.0389367015735
11107,585.6578635592914
11108,-259.63810597939255
11109,264.48646669308573
11110,171.55865069952822
11111,182.06572554508466
11112,-336.88337336089194
11113,-403.2385387031524
11114,114.57772510795509
11115,161.83644349638948
11116,-628.0447010001053
11117,242.0117530553885
11118,362.86303611765396
11119,60.71370640424475
11120,-359.3112312132593
11121,-379.08187950572676
11122,237.83778494978858
11123,-293.41750913992547
11124,-397.45137920298214
11125,159.58885605132568
11126,365.0374752135955
11127,-720.612846489736
11128,500.1648657714842
11129,-11.265810006163308
11130,-69.35501502523768
11131,250.8656215596783
11132,-169.3067854080248
11133,120.43720692692628
11134,-39.95315782539391
11135,-520.8790659997453
11136,-631.106105345373
11137,-189.45128724586777
11138,73.57078736644306
11139,39.63813193628207
11140,-459.8374387751053
11141,4.0290717234967675
11142,-197.448899656817
11143,62.38974256914656
11144,-186.44535236927166
11145,-133.60822019560194
11146,305.02297895286483
11147,-46.02246759214739
11148,-42.281475985007745
11149,-174.61342313978184
11150,-221.8174242781662
11151,-177.58255371476673
11152,-1.6457791602114635
11153,92.19561472892778
11154,380.63664334812415
11155,5.176285533507877
11156,-43.26413786036011
11157,138.56909768313312
11158,-644.2373399718058
11159,-264.0526485409812
11160,388.0771113359532
11161,-314.5755039675317
11162,68.59577885369843
11163,313.90250595867053
11164,-174.1363800055
11165,75.24506091716678
11166,-48.30049653479067
11167,366.32813493054266
11168,-300.9531752245203
11169,52.29547497280766
11170,199.76450852884636
11171,-291.4521388811774
11172,-221.25525714195135
11173,-347.6337366501136
11174,-203.1697372256598
11175,-377.92297544460445
11176,-39.059901238721324
11177,-27.65770898692374
11178,-4.840069011083872
11179,387.69317018167055
11180,173.07521100861572
11181,932.2704016789722
11182,-79.75948934966505
11183,140.83197737225066
11184,39.68402985812745
11185,443.5242080443133
11186,342.3599487202387
11187,-137.85795258406276
11188,596.3305304911729
11189,207.64692642350786
11190,-628.7444696897273
11191,498.5177064988443
11192,-157.93924874004873
11193,351.10783976574265
11194,21.711333535600776
11195,-147.85882005549377
11196,204.5724627492815
11197,29.474618249413023
11198,121.43392964124423
11199,-565.6199353865667
11200,-229.61058695852753
11201,-46.80447710874164
11202,686.9993413504831
11203,-439.3760081383569
11204,-564.3067809262279
11205,-449.445238720612
11206,-187.01337557795358
11207,63.71447075230688
11208,226.5321796112898
11209,-238.2619588660752
11210,8.03175266796765
11211,-360.688694185147
11212,-123.9931161386869
11213,-388.86461946300386
11214,21.025862631446213
11215,-301.50187125630436
11216,215.87740831289676
11217,403.51021004980004
11218,435.69760335692706
11219,-107.1009208837223
11220,186.04692078373645
11221,347.5694847398063
11222,258.81395911530547
11223,-431.3756614817934
11224,-169.3593819810199
11225,106.38668004303958
11226,11.40634334777961
11227,362.5962040295645
11228,-602.207354091148
11229,707.5559184457949
11230,202.17491878205462
11231,-50.337119767656766
11232,-170.3294234532492
11233,-33.31137090394979
11234,194.42983492011587
11235,-358.5893509674065
11236,-212.26535326917772
11237,-291.42110382226343
11238,295.5576189497118
11239,-278.9733872730838
11240,23.653653300110303
11241,-64.46361090683921
11242,-550.5130672413404
11243,541.3432697524759
11244,95.06333041131067
11245,14.598207374632883
11246,108.6088351912707
11247,-390.9747091142434
11248,358.6664196609004
11249,-656.7373713546334
11250,39.6217040406501
11251,-112.10781397641824
11252,-3.9966181836041725
11253,-399.3487785294677
11254,-189.94215830266796
11255,25.705003254617925
11256,-514.3423090508962
11257,42.9033889964726
11258,-18.932652421566306
11259,-109.3230964996569
11260,-32.89909171394703
11261,-543.8120026538539
11262,402.37108703097005
11263,36.24431537942722
11264,228.3040758000946
11265,346.38302227713746
11266,-401.2227069906854
11267,54.05719773136509
11268,6.862233348083689
11269,-3.812080565892219
11270,-445.45149197388776
11271,162.0875187432693
11272,176.36752501387144
11273,-516.9719819284378
11274,189.993160093489
11275,-164.45712796519342
11276,174.20994712832834
11277,-510.0297763148842
11278,174.78488510987188
11279,-352.7463243272839
11280,-145.46097708961696
11281,456.97186117066224
11282,-463.5148906726282
11283,-363.58427640439385
11284,-157.84808228490317
11285,-195.36060962026235
11286,152.0406877568562
11287,-197.09226766881733
11288,36.48096536871965
11289,993.2248779784695
11290,-387.02879318681534
11291,-6.6165108828034915
11292,-272.06886088584093
11293,-138.59954551011066
11294,-105.03944861259951
11295,-21.529524404723535
11296,91.05719915022925
11297,-65.7911971494724
11298,164.47287710093644
11299,-17.997827027464727
11300,783.8866597139149
11301,-339.23112472431285
11302,-196.48456361783556
11303,357.21849540968293
11304,186.31062521156892
11305,138.09410368403144
11306,-11.63246147773822
11307,175.8091637342032
11308,-224.61734983236255
11309,68.85579641186763
11310,201.21113139003927
11311,257.871142877163
11312,-432.87055951729894
11313,-893.9998008184398
11314,671.8650784658582
11315,-143.372649191218
11316,622.238658666282
11317,179.38442629047188
11318,553.7744088919065
11319,133.39922116403824
11320,-278.76344183166617
11321,-316.62804095298486
11322,503.4156628826673
11323,282.68713599665693
11324,-192.3497907541515
11325,-266.50621593517434
11326,28.44209269197213
11327,-502.81066448893506
11328,-284.8971678177402
11329,334.32539610270493
11330,131.85559421631226
11331,-163.06900527506758
11332,207.69781044505305
11333,84.53775535541757
11334,26.25962906610331
11335,-255.92213730636684
11336,51.282902742481866
11337,-102.04962146231165
11338,160.43430410628673
11339,285.39335595630945
11340,-58.84096452168106
11341,103.10534910665925
11342,-294.311293018734
11343,376.9074907782756
11344,69.80186693396848
11345,866.000188522611
11346,-39.37289658053895
11347,64.61420289331787
11348,-169.65603416906623
11349,-545.1873976320004
11350,-61.76963684753747
11351,-497.3202845338073
11352,462.29111052928874
11353,-153.26914250955588
11354,-206.00694145910344
11355,-139.67967903899955
11356,-86.3160350000839
11357,589.4439429065606
11358,213.39162365467214
11359,160.8426920524983
11360,189.14311879095524
11361,-353.6233316812039
11362,-195.46146888135107
11363,-130.97048784757084
11364,-411.89784821070907
11365,339.53611096103714
11366,278.7080285787567
11367,262.53933089099695
11368,-182.3152473785592
11369,312.5925398843066
11370,292.50696602849223
11371,-191.39812913021552
11372,97.19896589042818
11373,-323.06245196934776
11374,-641.6335236830926
11375,34.404317785941316
11376,332.61463954493973
11377,374.3942908011448
11378,79.74057443698273
11379,-175.66454148011687
11380,161.84977999054598
11381,247.70962726908033
11382,90.73858219235933
11383,406.9195427827269
11384,-128.2933840449146
11385,131.27330755535564
11386,729.3094416276248
11387,721.9516507762636
11388,-177.94000063372494
11389,709.5229020169679
11390,68.44182794627702
11391,-488.048106713704
11392,152.7459391461764
11393,-239.25028478333505
11394,-147.2809571447961
11395,-45.20831857564636
11396,-222.1244934454271
11397,-332.61528388191846
11398,-119.36737582300452
11399,411.59761537416625
11400,165.38288375398992
11401,488.2754656867206
11402,224.1448993009888
11403,57.12319327873932
11404,264.665020197873
11405,-126.75098294470814
11406,-376.2060205940091
11407,48.79137391778434
11408,420.19806400514165
11409,-415.5596397131086
11410,-45.07267871498928
11411,-169.48557453543256
11412,744.9633226613828
11413,-534.1845713199497
11414,-151.03112809100912
11415,577.9358654693667
11416,46.72638739060842
11417,311.5540818056215
11418,357.30637658810537
11419,265.4127384398402
11420,-253.59736902535082
11421,-473.8813440500309
11422,12.688444605876809
11423,-132.56426690048784
11424,72.47381920347692
11425,217.43580522922346
11426,-335.77852011220784
11427,-262.20462447685406
11428,95.51698320910211
11429,-209.18192024536015
11430,456.6356734923434
11431,308.4305601974663
11432,-28.853731125681296
11433,-358.51784715108124
11434,128.31172677442646
11435,145.62472438145974
11436,95.66700803418507
11437,268.283540913082
11438,-466.9244162464644
11439,-314.32094969127024
11440,344.7406648862779
11441,220.707558136711
11442,-578.4755239012409
11443,174.8090781147945
11444,399.94148396073365
11445,732.6720966332522
11446,667.3027303329161
11447,-63.096512982720746
11448,245.90652202892213
11449,21.73019301948921
11450,-248.65264042472566
11451,-197.04075505173972
11452,-282.0464722650835
11453,-81.15238925755455
11454,52.36536160378629
11455,-2.257126778133869
11456,-758.8756116063784
11457,213.4914591224903
11458,-169.27147826397578
11459,184.72028865201293
11460,256.56430497475253
11461,-63.24889777651971
11462,-272.71787183732476
11463,135.79446347148934
11464,455.7807433953058
11465,-129.35637652171948
11466,62.873370392220124
11467,-386.85293789480437
11468,267.22765883611083
11469,287.2411869226282
11470,-52.099728652585014
11471,76.40695664839127
11472,-138.1621508973807
11473,203.55614864230563
11474,15.488711020266384
11475,-5.96808251696888
11476,-31.644142590968695
11477,221.56630230692622
11478,-687.0023182063177
11479,483.7842231435411
11480,958.0223790880734
11481,191.59606092931205
11482,-58.58970557453567
11483,259.4623062040438
11484,-6.31675756191176
11485,-270.28846900008836
11486,-772.464229625116
11487,-146.46331926199846
11488,-37.781460993015386
11489,331.55195758225
11490,570.4745741117815
11491,-182.5998962757521
11492,-356.09408660693896
11493,84.14295121036423
11494,-115.7266417991661
11495,431.8983819954108
11496,-39.02760836085514
11497,28.16338306294784
11498,-54.06385343329347
11499,-259.96553784016345
11500,157.696878204808
11501,-451.57353618095334
11502,482.5565048687753
11503,242.5569452090999
11504,-588.1137438098024
11505,81.01709689599386
11506,325.4067394440308
11507,-22.05223515065572
11508,-296.278504197331
11509,299.05191358613877
11510,468.2699312239486
11511,-99.60746951487869
11512,5.278085447166927
11513,-101.94715017070945
11514,172.8154349633902
11515,-676.7207529529072
11516,-85.33458519818815
11517,117.54369571648141
11518,-83.62878738830557
11519,179.75562770163495
11520,-83.35296347452747
11521,-21.419178952216814
11522,292.1247462432765
11523,-100.1639608776517
11524,-295.4450782425563
11525,-196.19961546096357
11526,-90.4034979856604
11527,-58.11412409491339
11528,-400.3793446976449
11529,236.327175329715
11530,-312.00489053945046
11531,448.899047372765
11532,202.73550507695293
11533,94.92875456289599
11534,60.24730791750987
11535,-149.43663249088442
11536,406.783381465802
11537,600.8120265364312
11538,-23.263559460762398
11539,-565.3127069056472
11540,156.4406917256116
11541,648.6215466239544
11542,405.71979646874263
11543,261.8058313693005
11544,22.356083935015786
11545,238.41247473228938
11546,164.56802375270192
11547,-83.34674114858203
11548,209.7749198244942
11549,-198.97437741530769
11550,-78.73473210337424
11551,27.7324881019241
11552,450.31679507491
11553,-78.31520558005134
11554,-267.63890633380197
11555,348.3318744546584
11556,-404.45503917406836
11557,330.0959394936935
11558,-532.9705587435966
11559,530.1667228330994
11560,-741.0568046410542
11561,478.6495234473407
11562,164.63187921356115
11563,-449.7107531471196
11564,-412.1148110783399
11565,219.1277390751061
11566,-378.68930950300427
11567,368.7333880545343
11568,37.3384269584688
11569,396.49349500405356
11570,-29.329794718535148
11571,35.47525183909001
11572,-267.29107555681446
11573,-417.3465797913096
11574,-250.30106527663742
11575,-228.95720009218707
11576,692.2513473375059
11577,-411.15737206575307
11578,482.32117888250036
11579,109.4038692230871
11580,547.6205815138993
11581,179.88426508469277
11582,-521.5793101895118
11583,-0.5366722202072818
11584,-1.3108832742805443
11585,-248.05083145629607
11586,-243.06806182013162
11587,199.56730075170194
11588,381.32404325693386
11589,-393.16880388739725
11590,138.23245276134827
11591,34.241055697988486
11592,-4.629154614118421
11593,-151.86193128195868
11594,335.54637222708976
11595,-93.14529808270578
11596,507.7532186638956
11597,-355.46562053382206
11598,143.08978438160915
11599,137.94688403626975
11600,-151.04600604389685
11601,-19.6017736924689
11602,105.84882713406218
11603,-172.78518998126566
11604,482.1272637099986
11605,-267.5391741332557
11606,39.90555578613079
11607,-52.85579653107479
11608,-21.22244673120961
11609,155.37989346108495
11610,-96.06927783501649
11611,-163.175304096997
11612,-180.36573977355118
11613,-264.6784345236003
11614,171.42795164643744
11615,-11.457713362941405
11616,239.9973419068961
11617,-39.8499538384163
11618,-211.7416065579574
11619,-354.1693561735651
11620,72.47946295208905
11621,306.82020444019327
11622,10.710238479162113
11623,-367.951642997273
11624,280.9986782848996
11625,607.1342789952015
11626,226.0786669570698
11627,565.9296380146843
11628,-147.76747216989884
11629,-314.03756027490465
11630,-180.04553525208902
11631,51.27097737987204
11632,-118.81984221413488
11633,-258.2606219427472
11634,-229.8371302020438
11635,200.36475862315223
11636,-348.0714175640101
11637,-584.8608659725455
11638,-4.9298768310261805
11639,-163.4422148166991
11640,87.02751929856994
11641,41.56663504345369
11642,-494.890463777015
11643,-60.887711202975865
11644,-173.55136971975077
11645,181.26452118021325
11646,-51.3257090867706
11647,43.95099730518084
11648,-517.9818134858787
11649,-355.5526669032858
11650,272.4021668773409
11651,490.6303834469729
11652,-37.23470686782176
11653,100.19178117716015
11654,32.26474311666976
11655,342.38399589459624
11656,-274.3839964056698
11657,-461.5994801818374
11658,399.11781881563206
11659,59.94166241926611
11660,-119.02693796298121
11661,-281.70905159749043
11662,-127.6286844483194
11663,-556.5819101778255
11664,-79.37923441221903
11665,-84.28398755175002
11666,-212.85815433361967
11667,72.29858467981231
11668,-416.45899892038153
11669,-151.39277066781844
11670,-112.94325746656844
11671,-386.99760536798277
11672,553.349713365418
11673,-80.93783458087144
11674,265.605164512016
11675,498.0645050415459
11676,447.8834076769252
11677,-162.9533886340907
11678,121.20351520651981
11679,106.02342845843143
11680,340.50635541497263
11681,4.31441676278093
11682,-92.64783669165438
11683,-354.12957712883485
11684,214.0074765324252
11685,-345.6914287422604
11686,-271.8022086291163
11687,426.3090773781536
11688,-37.75750717052088
11689,-180.46345723783497
11690,-97.58231078807226
11691,347.82231323352704
11692,-237.01309080397738
11693,118.12311870118722
11694,681.4766679385012
11695,275.66334489092844
11696,185.16481639957334
11697,-13.159363367315914
11698,274.0722474871899
11699,178.76102965588325
11700,-178.98039516140628
11701,391.84251758648406
11702,-308.94994109697996
11703,-324.8362159483897
11704,262.0871357430683
11705,398.5210640940402
11706,-368.2548804329613
11707,-181.1825114378499
11708,-166.41347208747447
11709,68.98755258725333
11710,-249.4901287843145
11711,443.6033748432903
11712,13.650459883849857
11713,-212.5303785237183
11714,-27.915418712235986
11715,-240.79982184571045
11716,-142.88309144793732
11717,-285.8343043909048
11718,460.6316686800937
11719,-225.10788029950723
11720,97.82651932861995
11721,350.5872568742842
11722,378.8238516684884
11723,-3.8848455252725698
11724,-260.9482885668374
11725,-64.56158617381729
11726,-270.60328416669245
11727,-569.4207476943716
11728,142.46838399487916
11729,228.15231792746755
11730,170.90589405270768
11731,-88.73300598116803
11732,179.58514596852936
11733,176.78682556049324
11734,-56.27057434823877
11735,-185.8725872968262
11736,100.44658731097019
11737,-63.66217954558476
11738,623.2061139971227
11739,-122.16898105378141
11740,-216.5726412681248
11741,-130.98097450073686
11742,-293.82665858937685
11743,167.92384362729965
11744,9.259507593413302
11745,-587.4956962603301
11746,304.72480941847675
11747,251.4635951168525
11748,-304.0609677452426
11749,108.04336957545983
11750,-218.67189979790257
11751,-105.13018388543593
11752,121.35633108715729
11753,-302.9640413485007
11754,529.6616399285878
11755,-224.55011115095357
11756,688.859802099578
11757,121.62140840748285
11758,495.8633096373992
11759,-104.89700800321322
11760,-39.40369282771238
11761,-218.43393840893435
11762,-242.07542923760377
11763,328.4691736616504
11764,-121.5706232243743
11765,-351.9613272364568
11766,235.89654336008957
11767,211.8433161338359
11768,581.9859083831257
11769,-187.81685176717644
11770,-88.20353056281323
11771,-121.26318282161398
11772,-682.344931535684
11773,-61.45599357158235
11774,69.00904133898281
11775,132.8948728469897
11776,41.64682074346339
11777,-513.1698248834678
11778,216.74344092334772
11779,-533.8087878872976
11780,-467.1030650315723
11781,39.693989655146275
11782,178.84483759017866
11783,-255.91268436083152
11784,468.69097201293744
11785,-959.145867517445
11786,201.86251191588627
11787,-282.56870707573825
11788,-392.43495156660373
11789,-219.68775779803548
11790,169.5930226678121
11791,-21.895665769337203
11792,-242.27992228725702
11793,35.58886075134645
11794,336.440333530044
11795,-63.331520330006995
11796,-4.446048273787187
11797,-312.31536571456036
11798,14.581415571942811
11799,-258.2235127345505
11800,725.8387913302843
11801,-303.8280646204008
11802,-726.1845220640319
11803,93.42268369441408
11804,92.79798258372105
11805,342.4123292506733
11806,856.182539434416
11807,-54.88314706218293
11808,-213.1372064142547
11809,-365.0835488849484
11810,-733.4819620034943
11811,-206.05838193577927
11812,-418.27223526007845
11813,358.80446947095277
11814,-260.6223453246687
11815,546.2345722587844
11816,187.44948665603005
11817,-22.03398290079547
11818,88.73051702341365
11819,-243.13847978487848
11820,-41.379666278956584
11821,-543.6240241200907
11822,840.8060354669694
11823,402.8242218186642
11824,79.4207055955008
11825,473.3897942639645
11826,-57.645490046817145
11827,210.11286727244294
11828,-185.75745290109947
11829,22.76913800358604
11830,940.7468340773522
11831,-442.70666780215595
11832,-475.2447822521929
11833,-339.994283981621
11834,541.6463647301912
11835,333.49907956467405
11836,-765.496253379276
11837,91.19318918087261
11838,164.45073228966316
11839,274.612833122739
11840,263.1882538980377
11841,303.622334676765
11842,-92.18952553795617
11843,208.97371337568305
11844,-170.0341905096156
11845,41.558196358047695
11846,-670.8313651099274
11847,452.65937770406947
11848,741.810261254446
11849,420.5524115040739
11850,400.353002448178
11851,-181.64239575564238
11852,162.04635840200538
11853,2.7480936093335915
11854,534.6906446334299
11855,145.0593687435129
11856,245.6397735237529
11857,192.70633663604977
11858,486.573986371647
11859,525.2699999852716
11860,172.00159142779165
11861,342.56191471401786
11862,-338.44880989512257
11863,99.97133504380383
11864,-176.90171781690316
11865,316.4260102039332
11866,-637.4632411206283
11867,74.5333573639027
11868,-319.6093541834505
11869,-234.07357196963412
11870,238.83176324556302
11871,684.2995158543807
11872,-273.39394690634435
11873,229.49387382849594
11874,-191.42805181835263
11875,591.7365509012386
11876,-357.7170769578676
11877,279.3492027993533
11878,16.385346982374227
11879,1015.232107119162
11880,-44.24764867011643
11881,-259.1203848495988
11882,6.686312571179866
11883,113.41765950025426
11884,164.36906042910547
11885,-219.79091064314565
11886,-50.91215016522567
11887,234.693784829214
11888,-225.74604715601265
11889,-124.56806112022964
11890,89.33080634586165
11891,-24.039822321153782
11892,949.8138509171474
11893,21.685293242948294
11894,-333.0669156217115
11895,51.635266771127355
11896,-328.74705891806946
11897,-622.2335618237702
11898,-406.8257232673674
11899,-126.38083816157075
11900,-298.3568340444091
11901,-494.63240273284987
11902,579.022340758398
11903,170.42489512238225
11904,160.45127278901404
11905,-127.53245750920894
11906,116.51260749164115
11907,137.24483689523268
11908,-1.235126305627548
11909,613.250818396627
11910,435.2344808605947
11911,160.3869671002336
11912,-185.47388977035044
11913,188.6406559940112
11914,-610.5603513173608
11915,23.714657186399503
11916,-97.90469140459598
11917,-120.61345408597215
11918,353.07871733578827
11919,-18.442887505295108
11920,-120.28546893417459
11921,15.39291010385739
11922,185.80696804774462
11923,845.6527630055808
11924,349.45932877055884
11925,45.89263723696614
11926,-7.237928751002715
11927,-164.71617083396032
11928,107.29963692985899
11929,-99.60009978114869
11930,48.6163692693037
11931,41.199706043705866
11932,661.6732170958671
11933,305.9589879497772
11934,500.41107558683194
11935,-231.16099217574452
11936,334.17773249931906
11937,-326.4023426632568
11938,-574.1806195838044
11939,148.54087270945217
11940,613.9878825912874
11941,184.52036741988428
11942,-216.1004672587561
11943,-616.0735283229869
11944,127.46984067427087
11945,-96.88155439275032
11946,-167.71203784394385
11947,-349.94699488619204
11948,6.614867126927746
11949,543.2797064068865
11950,-362.78103146833865
11951,-330.0574194946647
11952,347.01454873631775
11953,526.4307732934471
11954,-69.34252030457
11955,368.08942932477527
11956,381.7237196417386
11957,345.85284032808426
11958,-204.68981318862083
11959,157.89721831896418
11960,-967.3833642179113
11961,527.9548197579916
11962,-338.8496057859546
11963,609.1811386017557
11964,381.11662058979897
11965,-18.35158324023033
11966,-92.24291830783167
11967,-166.0868655161454
11968,-173.93959945806165
11969,-221.1373420431765
11970,-228.37612245128582
11971,198.06160680945982
11972,-713.006476934304
11973,-89.68186474183332
11974,-480.0045701677807
11975,-271.73339592270077
11976,565.323639936672
11977,96.1114826323297
11978,178.61335856961412
11979,-61.174332454705535
11980,-368.6916872400582
11981,4.8477465781778415
11982,414.4138213444016
11983,-760.3183167930522
11984,84.91271532686042
11985,-251.84732552029033
11986,280.70758458952025
11987,-391.25027825107696
11988,608.499117170375
11989,-27.808460607211803
11990,-123.41411926925655
11991,-130.8292441940829
11992,18.55306889260235
11993,-433.16537587721444
11994,-303.70912611646503
11995,464.71525498507924
11996,496.48533446727885
11997,-35.135409415795934
11998,-131.67918453438674
11999,417.2691546213338
